%YAML 1.1
%TAG !u! tag:unity3d.com,2011:
--- !u!74 &7400000
AnimationClip:
  m_ObjectHideFlags: 0
  m_CorrespondingSourceObject: {fileID: 0}
  m_PrefabInstance: {fileID: 0}
  m_PrefabAsset: {fileID: 0}
  m_Name: Walk
  serializedVersion: 6
  m_Legacy: 0
  m_Compressed: 0
  m_UseHighQualityCurve: 1
  m_RotationCurves: []
  m_CompressedRotationCurves: []
  m_EulerCurves: []
  m_PositionCurves: []
  m_ScaleCurves: []
  m_FloatCurves: []
  m_PPtrCurves:
  - curve:
    - time: 0
      value: {fileID: 21300000, guid: d2e5b00368bb848dab7d468496d5c1ce, type: 3}
    - time: 0.083333336
      value: {fileID: 21300000, guid: 5c723d72edc8f480185fa2d2b53fe0e6, type: 3}
    - time: 0.16666667
      value: {fileID: 21300000, guid: 379e9105d1e2d4d918bb678fea0808d9, type: 3}
    - time: 0.25
      value: {fileID: 21300000, guid: a363661f6144d4d96a0642cb0773794b, type: 3}
    - time: 0.33333334
      value: {fileID: 21300000, guid: 43aae754614eb40098b19ee65f94d75e, type: 3}
    - time: 0.41666666
      value: {fileID: 21300000, guid: 4e880aec3a3e14efcbef8ba4daea2dfa, type: 3}
    - time: 0.5
      value: {fileID: 21300000, guid: 279f1fbddd31549e6aa2fd5f7cf5feb9, type: 3}
    - time: 0.5833333
      value: {fileID: 21300000, guid: 756c829983fda452b9a8a1e0b1402bc3, type: 3}
    attribute: m_Sprite
    path: 
    classID: 212
    script: {fileID: 0}
  m_SampleRate: 12
  m_WrapMode: 0
  m_Bounds:
    m_Center: {x: 0, y: 0, z: 0}
    m_Extent: {x: 0, y: 0, z: 0}
  m_ClipBindingConstant:
    genericBindings:
    - serializedVersion: 2
      path: 0
      attribute: 0
      script: {fileID: 0}
      typeID: 212
      customType: 23
      isPPtrCurve: 1
    pptrCurveMapping:
    - {fileID: 21300000, guid: d2e5b00368bb848dab7d468496d5c1ce, type: 3}
    - {fileID: 21300000, guid: 5c723d72edc8f480185fa2d2b53fe0e6, type: 3}
    - {fileID: 21300000, guid: 379e9105d1e2d4d918bb678fea0808d9, type: 3}
    - {fileID: 21300000, guid: a363661f6144d4d96a0642cb0773794b, type: 3}
    - {fileID: 21300000, guid: 43aae754614eb40098b19ee65f94d75e, type: 3}
    - {fileID: 21300000, guid: 4e880aec3a3e14efcbef8ba4daea2dfa, type: 3}
    - {fileID: 21300000, guid: 279f1fbddd31549e6aa2fd5f7cf5feb9, type: 3}
    - {fileID: 21300000, guid: 756c829983fda452b9a8a1e0b1402bc3, type: 3}
  m_AnimationClipSettings:
    serializedVersion: 2
    m_AdditiveReferencePoseClip: {fileID: 0}
    m_AdditiveReferencePoseTime: 0
    m_StartTime: 0
    m_StopTime: 0.6666666
    m_OrientationOffsetY: 0
    m_Level: 0
    m_CycleOffset: 0
    m_HasAdditiveReferencePose: 0
    m_LoopTime: 1
    m_LoopBlend: 0
    m_LoopBlendOrientation: 0
    m_LoopBlendPositionY: 0
    m_LoopBlendPositionXZ: 0
    m_KeepOriginalOrientation: 0
    m_KeepOriginalPositionY: 1
    m_KeepOriginalPositionXZ: 0
    m_HeightFromFeet: 0
    m_Mirror: 0
  m_EditorCurves: []
  m_EulerEditorCurves: []
  m_HasGenericRootTransform: 0
  m_HasMotionFloatCurves: 0
  m_Events: []
